{
  "gameLevels":
    [
      {
      "noPuckets": 4,
      "typeOfBoard":"Rectangle",
      "puckParentPos" : [{}],
      "puckPositions" : [{},{},{}],
      "cameraPositionAngle" :[{},{}],
      "playerForce" :190,
      "aiTimeLapse" : 2.5,
      "aiforce" : 175,
      "timeLimit" : 0,
      "typeofHole": "",
      "isholeFixed":true,
      "bg" : 1
    },
    {
      "noPuckets": 5,
      "typeOfBoard":"Rectangle",
      "puckParentPos" : [{}],
      "puckPositions" : [{},{},{}],
      "cameraPositionAngle" :[{},{}],
      "playerForce" :190,
      "aiTimeLapse" : 2.5,
      "aiforce" : 175,
      "timeLimit" : 20,
      "typeofHole": "",
      "isholeFixed":true,
      "bg" : 1
    },
    {
      "noPuckets": 6,
      "typeOfBoard":"Triangle",
      "puckParentPos" : [{}],
      "puckPositions" : [{},{},{}],
      "cameraPositionAngle" :[{},{}],
      "playerForce" :190,
      "aiTimeLapse" : 2.5,
      "aiforce" : 175,
      "timeLimit" : 0,
      "typeofHole": "",
      "isholeFixed":true,
      "bg" : 2
    },
    {
      "noPuckets": 7,
      "typeOfBoard":"Triangle",
      "puckParentPos" : [{}],
      "puckPositions" : [{},{},{}],
      "cameraPositionAngle" :[{},{}],
      "playerForce" :190,
      "aiTimeLapse" : 2.5,
      "aiforce" : 175,
      "timeLimit" : 30,
      "typeofHole": "",
      "isholeFixed":true,
      "bg" : 2
    },
    {
      "noPuckets": 5,
      "typeOfBoard":"Square",
      "puckParentPos" : [{}],
      "puckPositions" : [{},{},{}],
      "cameraPositionAngle" :[{},{}],
      "playerForce" :190,
      "aiTimeLapse" : 2.5,
      "aiforce" : 175,
      "timeLimit" : 0,
      "typeofHole": "",
      "isholeFixed":true,
      "bg" : 3
    },
    {
      "noPuckets": 6,
      "typeOfBoard":"Square",
      "puckParentPos" : [{}],
      "puckPositions" : [{},{},{}],
      "cameraPositionAngle" :[{},{}],
      "playerForce" :190,
      "aiTimeLapse" : 2.5,
      "aiforce" : 175,
      "timeLimit" : 50,
      "typeofHole": "",
      "isholeFixed":true,
      "bg" : 1 
    }
  ]
}